<?xml version="1.0" encoding="UTF-8" standalone="no"?>
<!DOCTYPE svg PUBLIC "-//W3C//DTD SVG 1.1//EN" "http://www.w3.org/Graphics/SVG/1.1/DTD/svg11.dtd">
<!-- Generated by Microsoft Visio, SVG Export CloudServer.svg Page-1 -->
<svg xmlns="http://www.w3.org/2000/svg" xmlns:xlink="http://www.w3.org/1999/xlink" xmlns:ev="http://www.w3.org/2001/xml-events"
		xmlns:v="http://schemas.microsoft.com/visio/2003/SVGExtensions/" width="8.5in" height="11in" viewBox="0 0 612 792"
		xml:space="preserve" color-interpolation-filters="sRGB" class="st17">
	<v:documentProperties v:langID="1033" v:viewMarkup="false">
		<v:userDefs>
			<v:ud v:nameU="msvNoAutoConnect" v:val="VT0(1):26"/>
		</v:userDefs>
	</v:documentProperties>

	<style type="text/css">
	<![CDATA[
		.st1 {fill:#ffffff;stroke:#000000;stroke-linecap:round;stroke-linejoin:round;stroke-width:0.25}
		.st2 {fill:#000000;font-family:Calibri;font-size:0.666664em}
		.st3 {font-size:1em}
		.st4 {fill:none;stroke:none;stroke-linecap:round;stroke-linejoin:round;stroke-width:0.75}
		.st5 {fill:#000000;font-family:Calibri;font-size:0.833336em}
		.st6 {marker-end:url(#mrkr13-30);marker-start:url(#mrkr13-28);stroke:#000000;stroke-linecap:round;stroke-linejoin:round;stroke-width:0.25}
		.st7 {fill:#000000;fill-opacity:1;stroke:#000000;stroke-opacity:1;stroke-width:0.14792899408284}
		.st8 {fill:#ffffff}
		.st9 {stroke:#000000;stroke-linecap:round;stroke-linejoin:round;stroke-width:0.24}
		.st10 {marker-end:url(#mrkr13-30);stroke:#000000;stroke-linecap:round;stroke-linejoin:round;stroke-width:0.25}
		.st11 {fill:#ffffff;stroke:none;stroke-linecap:butt;stroke-width:7.2}
		.st12 {fill:none;stroke:none;stroke-linecap:round;stroke-linejoin:round;stroke-width:0.25}
		.st13 {fill:none;stroke:#000000;stroke-linecap:round;stroke-linejoin:round;stroke-width:0.25}
		.st14 {marker-end:url(#mrkr13-30);stroke:#000000;stroke-dasharray:3.75,2.25;stroke-linecap:round;stroke-linejoin:round;stroke-width:0.25}
		.st15 {fill:#ffffff;stroke:none;stroke-linecap:butt}
		.st16 {stroke:#ffffff;stroke-linecap:round;stroke-linejoin:round;stroke-width:0.75}
		.st17 {fill:none;fill-rule:evenodd;font-size:12px;overflow:visible;stroke-linecap:square;stroke-miterlimit:3}
	]]>
	</style>

	<defs id="Markers">
		<g id="lend13">
			<path d="M 3 1 L 0 0 L 3 -1 L 3 1 " style="stroke:none"/>
		</g>
		<marker id="mrkr13-28" class="st7" v:arrowType="13" v:arrowSize="0" v:setback="18.84" refX="18.84" orient="auto"
				markerUnits="strokeWidth" overflow="visible">
			<use xlink:href="#lend13" transform="scale(6.76) "/>
		</marker>
		<marker id="mrkr13-30" class="st7" v:arrowType="13" v:arrowSize="0" v:setback="20.28" refX="-20.28" orient="auto"
				markerUnits="strokeWidth" overflow="visible">
			<use xlink:href="#lend13" transform="scale(-6.76,-6.76) "/>
		</marker>
	</defs>
	<g v:mID="0" v:index="1" v:groupContext="foregroundPage">
		<title>Page-1</title>
		<v:pageProperties v:drawingScale="1" v:pageScale="1" v:drawingUnits="19" v:shadowOffsetX="9" v:shadowOffsetY="-9"/>
		<v:layer v:name="Flowchart" v:index="0"/>
		<v:layer v:name="Connector" v:index="1"/>
		<g id="shape2-1" v:mID="2" v:groupContext="shape" transform="translate(198,-603)">
			<title>Sheet.2</title>
			<desc>S3 Routes</desc>
			<v:textBlock v:margins="rect(4,4,4,4)"/>
			<v:textRect cx="27" cy="780.75" width="54" height="22.5"/>
			<rect x="0" y="769.5" width="54" height="22.5" class="st1"/>
			<text x="10.95" y="783.15" class="st2" v:langID="1033"><v:paragraph v:horizAlign="1"/><v:tabList/>S3 Routes</text>		</g>
		<g id="shape3-4" v:mID="3" v:groupContext="shape" transform="translate(198,-531)">
			<title>Sheet.3</title>
			<desc>Management Agent</desc>
			<v:textBlock v:margins="rect(4,4,4,4)"/>
			<v:textRect cx="27" cy="780.75" width="54" height="22.5"/>
			<rect x="0" y="769.5" width="54" height="22.5" class="st1"/>
			<text x="5.15" y="778.35" class="st2" v:langID="1033"><v:paragraph v:horizAlign="1"/><v:tabList/>Management <tspan
						x="17.37" dy="1.2em" class="st3">Agent</tspan></text>		</g>
		<g id="shape4-8" v:mID="4" v:groupContext="shape" transform="translate(198,-567)">
			<title>Sheet.4</title>
			<desc>Backbeat Routes</desc>
			<v:textBlock v:margins="rect(4,4,4,4)"/>
			<v:textRect cx="27" cy="780.75" width="54" height="22.5"/>
			<rect x="0" y="769.5" width="54" height="22.5" class="st1"/>
			<text x="12.05" y="778.35" class="st2" v:langID="1033"><v:paragraph v:horizAlign="1"/><v:tabList/>Backbeat <tspan
						x="15.72" dy="1.2em" class="st3">Routes</tspan></text>		</g>
		<g id="shape8-12" v:mID="8" v:groupContext="shape" transform="translate(189,-625.5)">
			<title>Sheet.8</title>
			<desc>CloudServer</desc>
			<v:textBlock v:margins="rect(4,4,4,4)"/>
			<v:textRect cx="81" cy="780.75" width="162" height="22.5"/>
			<rect x="0" y="769.5" width="162" height="22.5" class="st4"/>
			<text x="56.28" y="783.75" class="st5" v:langID="1033"><v:paragraph v:horizAlign="1"/><v:tabList/>CloudServer</text>		</g>
		<g id="shape9-15" v:mID="9" v:groupContext="shape" transform="translate(288,-567)">
			<title>Sheet.9</title>
			<desc>Metadata Backend</desc>
			<v:textBlock v:margins="rect(4,4,4,4)"/>
			<v:textRect cx="27" cy="780.75" width="54" height="22.5"/>
			<rect x="0" y="769.5" width="54" height="22.5" class="st1"/>
			<text x="11.06" y="778.35" class="st2" v:langID="1033"><v:paragraph v:horizAlign="1"/><v:tabList/>Metadata <tspan
						x="13.21" dy="1.2em" class="st3">Backend</tspan></text>		</g>
		<g id="shape10-19" v:mID="10" v:groupContext="shape" transform="translate(288,-603)">
			<title>Sheet.10</title>
			<desc>Data Backend</desc>
			<v:textBlock v:margins="rect(4,4,4,4)"/>
			<v:textRect cx="27" cy="780.75" width="54" height="22.5"/>
			<rect x="0" y="769.5" width="54" height="22.5" class="st1"/>
			<text x="4.67" y="783.15" class="st2" v:langID="1033"><v:paragraph v:horizAlign="1"/><v:tabList/>Data Backend</text>		</g>
		<g id="shape21-22" v:mID="21" v:groupContext="shape" transform="translate(859.581,782.348) rotate(143.569)">
			<title>Sheet.21</title>
			<path d="M4.71 792 L5.07 792 L53.66 792" class="st6"/>
		</g>
		<g id="shape23-31" v:mID="23" v:groupContext="shape" transform="translate(205.431,963.258) rotate(-165.069)">
			<title>Sheet.23</title>
			<path d="M4.71 792 L5.07 792 L64.79 792" class="st6"/>
		</g>
		<g id="shape24-38" v:mID="24" v:groupContext="shape" transform="translate(-20.5359,889.4) rotate(-146.725)">
			<title>Sheet.24</title>
			<path d="M4.71 792 L5.07 792 L81.05 792" class="st6"/>
		</g>
		<g id="shape22-45" v:mID="22" v:groupContext="shape" transform="translate(546.974,947.327) rotate(169.34)">
			<title>Sheet.22</title>
			<path d="M4.71 792 L5.07 792 L54.43 792" class="st6"/>
		</g>
		<g id="group34-52" transform="translate(290.25,-428.062)" v:mID="34" v:groupContext="group">
			<title>Sheet.34</title>
			<g id="shape35-53" v:mID="35" v:groupContext="shape" v:layerMember="0" transform="translate(-737.438,792) rotate(-90)">
				<title>Database.99</title>
				<v:custProps>
					<v:cp v:nameU="Cost" v:lbl="Cost" v:prompt="" v:type="7" v:format="@" v:sortKey="" v:invis="false"
							v:ask="false" v:langID="1033" v:cal="0"/>
					<v:cp v:nameU="ProcessNumber" v:lbl="Process Number" v:prompt="" v:type="2" v:format="" v:sortKey=""
							v:invis="false" v:ask="false" v:langID="1033" v:cal="0"/>
					<v:cp v:nameU="Owner" v:lbl="Owner" v:prompt="" v:type="0" v:format="" v:sortKey="" v:invis="false"
							v:ask="false" v:langID="1033" v:cal="0"/>
					<v:cp v:nameU="Function" v:lbl="Function" v:prompt="" v:type="0" v:format="" v:sortKey="" v:invis="false"
							v:ask="false" v:langID="1033" v:cal="0" v:val="VT4()"/>
					<v:cp v:nameU="StartDate" v:lbl="Start Date" v:prompt="" v:type="5" v:format="" v:sortKey="" v:invis="false"
							v:ask="false" v:langID="1033" v:cal="0"/>
					<v:cp v:nameU="EndDate" v:lbl="End Date" v:prompt="" v:type="5" v:format="" v:sortKey="" v:invis="false"
							v:ask="false" v:langID="1033" v:cal="0"/>
					<v:cp v:nameU="Status" v:lbl="Status" v:prompt="" v:type="4"
							v:format=";Not Started;In Progress;Completed;Deferred;Waiting on Input" v:sortKey="" v:invis="false"
							v:ask="false" v:langID="1033" v:cal="0" v:val="VT4()"/>
				</v:custProps>
				<v:userDefs>
					<v:ud v:nameU="visVersion" v:prompt="" v:val="VT0(15):26"/>
					<v:ud v:nameU="DefaultWidth" v:prompt="" v:val="VT0(1):0"/>
					<v:ud v:nameU="DefaultHeight" v:prompt="" v:val="VT0(0.75):0"/>
					<v:ud v:nameU="ResizeTxtHeight" v:prompt="" v:val="VT0(0.75):0"/>
				</v:userDefs>
				<path d="M6.82 737.44 L71.44 737.44 A57.9727 57.9727 0 0 1 71.44 792 L6.82 792 A57.9727 57.9727 0 0 1 6.82 737.44
							 Z" class="st8"/>
				<path d="M6.82 737.44 L71.44 737.44 A57.9727 57.9727 0 0 1 71.44 792 L6.82 792 A57.9727 57.9727 0 0 1 6.82 737.44"
						class="st9"/>
				<path d="M71.44 737.44 A57.9727 57.9727 -180 0 0 71.44 792" class="st9"/>
			</g>
		</g>
		<g id="shape37-57" v:mID="37" v:groupContext="shape" transform="translate(290.25,-477.25)">
			<title>Sheet.37</title>
			<desc>MongoDB</desc>
			<v:textBlock v:margins="rect(4,4,4,4)"/>
			<v:textRect cx="27.2813" cy="783" width="54.57" height="18"/>
			<rect x="0" y="774" width="54.5625" height="18" class="st4"/>
			<text x="11.02" y="785.4" class="st2" v:langID="1033"><v:paragraph v:horizAlign="1"/><v:tabList/>MongoDB</text>		</g>
		<g id="shape38-60" v:mID="38" v:groupContext="shape" transform="translate(301.781,-464.625)">
			<title>Sheet.38</title>
			<desc>leader</desc>
			<v:textBlock v:margins="rect(4,4,4,4)"/>
			<v:textRect cx="15.75" cy="786.375" width="31.51" height="11.25"/>
			<rect x="0" y="780.75" width="31.5" height="11.25" class="st1"/>
			<text x="5.44" y="788.77" class="st2" v:langID="1033"><v:paragraph v:horizAlign="1"/><v:tabList/>leader</text>		</g>
		<g id="shape39-63" v:mID="39" v:groupContext="shape" transform="translate(301.781,-443.25)">
			<title>Sheet.39</title>
			<desc>OpLog</desc>
			<v:textBlock v:margins="rect(4,4,4,4)"/>
			<v:textRect cx="15.75" cy="786.375" width="31.51" height="11.25"/>
			<rect x="0" y="780.75" width="31.5" height="11.25" class="st1"/>
			<text x="5.33" y="788.77" class="st2" v:langID="1033"><v:paragraph v:horizAlign="1"/><v:tabList/>OpLog</text>		</g>
		<g id="shape40-66" v:mID="40" v:groupContext="shape" transform="translate(81,-603)">
			<title>Sheet.40</title>
			<desc>S3 Client</desc>
			<v:textBlock v:margins="rect(4,4,4,4)"/>
			<v:textRect cx="27" cy="780.75" width="54" height="22.5"/>
			<rect x="0" y="769.5" width="54" height="22.5" class="st1"/>
			<text x="12.83" y="783.15" class="st2" v:langID="1033"><v:paragraph v:horizAlign="1"/><v:tabList/>S3 Client</text>		</g>
		<g id="shape41-69" v:mID="41" v:groupContext="shape" transform="translate(81,-567)">
			<title>Sheet.41</title>
			<desc>Control Client</desc>
			<v:textBlock v:margins="rect(4,4,4,4)"/>
			<v:textRect cx="27" cy="780.75" width="54" height="22.5"/>
			<rect x="0" y="769.5" width="54" height="22.5" class="st1"/>
			<text x="4.59" y="783.15" class="st2" v:langID="1033"><v:paragraph v:horizAlign="1"/><v:tabList/>Control Client</text>		</g>
		<g id="shape42-72" v:mID="42" v:groupContext="shape" transform="translate(81,-531)">
			<title>Sheet.42</title>
			<desc>Orbit Push</desc>
			<v:textBlock v:margins="rect(4,4,4,4)"/>
			<v:textRect cx="27" cy="780.75" width="54" height="22.5"/>
			<rect x="0" y="769.5" width="54" height="22.5" class="st1"/>
			<text x="9.86" y="783.15" class="st2" v:langID="1033"><v:paragraph v:horizAlign="1"/><v:tabList/>Orbit Push</text>		</g>
		<g id="shape45-75" v:mID="45" v:groupContext="shape" v:layerMember="1" transform="translate(135,-605.25)">
			<title>Dynamic connector</title>
			<desc>S3</desc>
			<v:textBlock v:margins="rect(4,4,4,4)"/>
			<v:textRect cx="31.5" cy="783" width="40" height="17.6036"/>
			<path d="M0 783 L57.93 783" class="st10"/>
			<rect v:rectContext="textBkgnd" x="27.6348" y="778.2" width="7.73053" height="9.59985" class="st11"/>
			<text x="27.63" y="785.4" class="st2" v:langID="1033"><v:paragraph v:horizAlign="1"/><v:tabList/>S3</text>		</g>
		<g id="group28-82" transform="translate(399.938,-607.5)" v:mID="28" v:groupContext="group">
			<v:custProps>
				<v:cp v:nameU="ShapeClass" v:lbl="ShapeClass" v:prompt="" v:type="0" v:format="" v:sortKey="" v:invis="true"
						v:ask="false" v:langID="1033" v:cal="0" v:val="VT4(Location)"/>
				<v:cp v:nameU="ShapeType" v:lbl="ShapeType" v:prompt="" v:type="0" v:format="" v:sortKey="" v:invis="true"
						v:ask="false" v:langID="1033" v:cal="0" v:val="VT4(Cloud)"/>
			</v:custProps>
			<v:userDefs>
				<v:ud v:nameU="visVersion" v:prompt="" v:val="VT0(15):26"/>
				<v:ud v:nameU="ShapeClass" v:prompt="" v:val="VT0(5):26"/>
				<v:ud v:nameU="SolSH" v:prompt="" v:val="VT15({BF0433D9-CD73-4EB5-8390-8653BE590246}):41"/>
				<v:ud v:nameU="visLegendShape" v:prompt="" v:val="VT0(2):26"/>
			</v:userDefs>
			<title>Cloud.28</title>
			<g id="shape29-83" v:mID="29" v:groupContext="shape" transform="translate(0,-7.68028)">
				<title>Sheet.29</title>
				<path d="M31.55 776.98 C31.35 775.28 29.78 773.95 27.85 773.95 C27.3 773.95 26.78 774.07 26.32 774.26 C25.41 772.58
							 23.53 771.36 20 771.46 C15.42 771.59 10 773.62 8.91 777.22 C7.6 777.47 6.76 778.16 6.26 779.09 C6.06
							 779.07 5.85 779.06 5.64 779.06 C2.62 779.06 0.3 781.23 0.17 783.89 C0 787.35 2.62 788.73 5.64 788.73
							 C6.07 788.73 6.49 788.68 6.89 788.6 C7.52 789 8.33 789.25 9.23 789.25 C10.06 789.25 10.82 789.04 11.42
							 788.68 C12.59 790.63 14.97 792 17.73 791.84 C20.62 791.67 22.36 791.07 23.39 790.13 C23.45 790.12 23.51
							 790.12 23.58 790.11 C26.82 789.7 28.24 788.88 28.7 787.52 C28.78 787.52 28.87 787.52 28.96 787.52 C33.16
							 787.52 36.56 786.31 36.56 782.08 C36.56 779.73 34.46 777.74 31.55 776.98 Z" class="st1"/>
			</g>
		</g>
		<g id="shape19-85" v:mID="19" v:groupContext="shape" transform="translate(400.219,-618.75)">
			<title>Sheet.19</title>
			<desc>S3C</desc>
			<v:textBlock v:margins="rect(4,4,4,4)"/>
			<v:textRect cx="18.2812" cy="786.375" width="36.57" height="11.25"/>
			<rect x="0" y="780.75" width="36.5625" height="11.25" class="st12"/>
			<text x="12.28" y="788.77" class="st2" v:langID="1033"><v:paragraph v:horizAlign="1"/><v:tabList/>S3C</text>		</g>
		<g id="group30-88" transform="translate(408.375,-577.125)" v:mID="30" v:groupContext="group">
			<v:custProps>
				<v:cp v:nameU="ShapeClass" v:lbl="ShapeClass" v:prompt="" v:type="0" v:format="" v:sortKey="" v:invis="true"
						v:ask="false" v:langID="1033" v:cal="0" v:val="VT4(Location)"/>
				<v:cp v:nameU="ShapeType" v:lbl="ShapeType" v:prompt="" v:type="0" v:format="" v:sortKey="" v:invis="true"
						v:ask="false" v:langID="1033" v:cal="0" v:val="VT4(Cloud)"/>
			</v:custProps>
			<v:userDefs>
				<v:ud v:nameU="visVersion" v:prompt="" v:val="VT0(15):26"/>
				<v:ud v:nameU="ShapeClass" v:prompt="" v:val="VT0(5):26"/>
				<v:ud v:nameU="SolSH" v:prompt="" v:val="VT15({BF0433D9-CD73-4EB5-8390-8653BE590246}):41"/>
				<v:ud v:nameU="visLegendShape" v:prompt="" v:val="VT0(2):26"/>
			</v:userDefs>
			<title>Cloud.30</title>
			<g id="shape31-89" v:mID="31" v:groupContext="shape" transform="translate(0,-7.68028)">
				<title>Sheet.31</title>
				<path d="M31.55 776.98 C31.35 775.28 29.78 773.95 27.85 773.95 C27.3 773.95 26.78 774.07 26.32 774.26 C25.41 772.58
							 23.53 771.36 20 771.46 C15.42 771.59 10 773.62 8.91 777.22 C7.6 777.47 6.76 778.16 6.26 779.09 C6.06
							 779.07 5.85 779.06 5.64 779.06 C2.62 779.06 0.3 781.23 0.17 783.89 C0 787.35 2.62 788.73 5.64 788.73
							 C6.07 788.73 6.49 788.68 6.89 788.6 C7.52 789 8.33 789.25 9.23 789.25 C10.06 789.25 10.82 789.04 11.42
							 788.68 C12.59 790.63 14.97 792 17.73 791.84 C20.62 791.67 22.36 791.07 23.39 790.13 C23.45 790.12 23.51
							 790.12 23.58 790.11 C26.82 789.7 28.24 788.88 28.7 787.52 C28.78 787.52 28.87 787.52 28.96 787.52 C33.16
							 787.52 36.56 786.31 36.56 782.08 C36.56 779.73 34.46 777.74 31.55 776.98 Z" class="st1"/>
			</g>
		</g>
		<g id="shape20-91" v:mID="20" v:groupContext="shape" transform="translate(410.625,-585)">
			<title>Sheet.20</title>
			<desc>GCP</desc>
			<v:textBlock v:margins="rect(4,4,4,4)"/>
			<v:textRect cx="15.75" cy="783" width="31.51" height="18"/>
			<rect x="0" y="774" width="31.5" height="18" class="st12"/>
			<text x="9.03" y="785.4" class="st2" v:langID="1033"><v:paragraph v:horizAlign="1"/><v:tabList/>GCP</text>		</g>
		<g id="group32-94" transform="translate(408.375,-545.062)" v:mID="32" v:groupContext="group">
			<v:custProps>
				<v:cp v:nameU="ShapeClass" v:lbl="ShapeClass" v:prompt="" v:type="0" v:format="" v:sortKey="" v:invis="true"
						v:ask="false" v:langID="1033" v:cal="0" v:val="VT4(Location)"/>
				<v:cp v:nameU="ShapeType" v:lbl="ShapeType" v:prompt="" v:type="0" v:format="" v:sortKey="" v:invis="true"
						v:ask="false" v:langID="1033" v:cal="0" v:val="VT4(Cloud)"/>
			</v:custProps>
			<v:userDefs>
				<v:ud v:nameU="visVersion" v:prompt="" v:val="VT0(15):26"/>
				<v:ud v:nameU="ShapeClass" v:prompt="" v:val="VT0(5):26"/>
				<v:ud v:nameU="SolSH" v:prompt="" v:val="VT15({BF0433D9-CD73-4EB5-8390-8653BE590246}):41"/>
				<v:ud v:nameU="visLegendShape" v:prompt="" v:val="VT0(2):26"/>
			</v:userDefs>
			<title>Cloud.32</title>
			<g id="shape33-95" v:mID="33" v:groupContext="shape" transform="translate(0,-7.68028)">
				<title>Sheet.33</title>
				<path d="M31.55 776.98 C31.35 775.28 29.78 773.95 27.85 773.95 C27.3 773.95 26.78 774.07 26.32 774.26 C25.41 772.58
							 23.53 771.36 20 771.46 C15.42 771.59 10 773.62 8.91 777.22 C7.6 777.47 6.76 778.16 6.26 779.09 C6.06
							 779.07 5.85 779.06 5.64 779.06 C2.62 779.06 0.3 781.23 0.17 783.89 C0 787.35 2.62 788.73 5.64 788.73
							 C6.07 788.73 6.49 788.68 6.89 788.6 C7.52 789 8.33 789.25 9.23 789.25 C10.06 789.25 10.82 789.04 11.42
							 788.68 C12.59 790.63 14.97 792 17.73 791.84 C20.62 791.67 22.36 791.07 23.39 790.13 C23.45 790.12 23.51
							 790.12 23.58 790.11 C26.82 789.7 28.24 788.88 28.7 787.52 C28.78 787.52 28.87 787.52 28.96 787.52 C33.16
							 787.52 36.56 786.31 36.56 782.08 C36.56 779.73 34.46 777.74 31.55 776.98 Z" class="st1"/>
			</g>
		</g>
		<g id="shape18-97" v:mID="18" v:groupContext="shape" transform="translate(408.938,-558)">
			<title>Sheet.18</title>
			<desc>Azure</desc>
			<v:textBlock v:margins="rect(4,4,4,4)"/>
			<v:textRect cx="18.2812" cy="786.375" width="36.57" height="11.25"/>
			<rect x="0" y="780.75" width="36.5625" height="11.25" class="st12"/>
			<text x="8.9" y="788.77" class="st2" v:langID="1033"><v:paragraph v:horizAlign="1"/><v:tabList/>Azure</text>		</g>
		<g id="group51-100" transform="translate(385.926,-507.704)" v:mID="51" v:groupContext="group">
			<v:custProps>
				<v:cp v:nameU="ShapeClass" v:lbl="ShapeClass" v:prompt="" v:type="0" v:format="" v:sortKey="" v:invis="true"
						v:ask="false" v:langID="1033" v:cal="0" v:val="VT4(Location)"/>
				<v:cp v:nameU="ShapeType" v:lbl="ShapeType" v:prompt="" v:type="0" v:format="" v:sortKey="" v:invis="true"
						v:ask="false" v:langID="1033" v:cal="0" v:val="VT4(Cloud)"/>
			</v:custProps>
			<v:userDefs>
				<v:ud v:nameU="visVersion" v:prompt="" v:val="VT0(15):26"/>
				<v:ud v:nameU="ShapeClass" v:prompt="" v:val="VT0(5):26"/>
				<v:ud v:nameU="SolSH" v:prompt="" v:val="VT15({BF0433D9-CD73-4EB5-8390-8653BE590246}):41"/>
				<v:ud v:nameU="visLegendShape" v:prompt="" v:val="VT0(2):26"/>
			</v:userDefs>
			<title>Cloud.32</title>
			<g id="shape52-101" v:mID="52" v:groupContext="shape" transform="translate(0,-10.4198)">
				<title>Sheet.52</title>
				<path d="M35.14 771.63 C34.92 769.32 33.17 767.51 31.02 767.51 C30.41 767.51 29.84 767.67 29.32 767.93 C28.3 765.66
							 26.21 764 22.28 764.13 C17.18 764.31 11.14 767.06 9.92 771.95 C8.47 772.28 7.53 773.23 6.97 774.49 C6.75
							 774.46 6.52 774.44 6.28 774.44 C2.92 774.44 0.34 777.38 0.19 781 C0 785.69 2.92 787.57 6.28 787.57 C6.76
							 787.57 7.22 787.5 7.67 787.39 C8.37 787.93 9.28 788.27 10.28 788.27 C11.2 788.27 12.05 787.98 12.73
							 787.5 C14.02 790.14 16.68 792 19.75 791.78 C22.97 791.56 24.91 790.73 26.05 789.46 C26.13 789.45 26.19
							 789.45 26.27 789.44 C29.87 788.88 31.46 787.76 31.97 785.92 C32.07 785.92 32.16 785.92 32.26 785.92
							 C36.94 785.92 40.73 784.28 40.73 778.54 C40.73 775.35 38.39 772.66 35.14 771.63 Z" class="st1"/>
			</g>
		</g>
		<g id="shape53-103" v:mID="53" v:groupContext="shape" transform="translate(371.25,-521.767)">
			<title>Sheet.53</title>
			<desc>RING sproxyd</desc>
			<v:textBlock v:margins="rect(4,4,4,4)"/>
			<v:textRect cx="36" cy="780.75" width="72" height="22.5"/>
			<rect x="0" y="769.5" width="72" height="22.5" class="st12"/>
			<text x="27.71" y="778.35" class="st2" v:langID="1033"><v:paragraph v:horizAlign="1"/><v:tabList/>RING<v:lf/><tspan
						x="23.19" dy="1.2em" class="st3">sproxyd</tspan></text>		</g>
		<g id="shape55-107" v:mID="55" v:groupContext="shape" transform="translate(-239.369,725.395) rotate(-126.656)">
			<title>Sheet.55</title>
			<path d="M4.71 792 L5.07 792 L85.38 792" class="st6"/>
		</g>
		<g id="group56-114" transform="translate(374.625,-635.625)" v:mID="56" v:groupContext="group">
			<title>Sheet.56</title>
			<g id="group26-115" transform="translate(2.53125,0)" v:mID="26" v:groupContext="group">
				<v:custProps>
					<v:cp v:nameU="ShapeClass" v:lbl="ShapeClass" v:prompt="" v:type="0" v:format="" v:sortKey="" v:invis="true"
							v:ask="false" v:langID="1033" v:cal="0" v:val="VT4(Location)"/>
					<v:cp v:nameU="ShapeType" v:lbl="ShapeType" v:prompt="" v:type="0" v:format="" v:sortKey="" v:invis="true"
							v:ask="false" v:langID="1033" v:cal="0" v:val="VT4(Cloud)"/>
				</v:custProps>
				<v:userDefs>
					<v:ud v:nameU="visVersion" v:prompt="" v:val="VT0(15):26"/>
					<v:ud v:nameU="ShapeClass" v:prompt="" v:val="VT0(5):26"/>
					<v:ud v:nameU="SolSH" v:prompt="" v:val="VT15({BF0433D9-CD73-4EB5-8390-8653BE590246}):41"/>
					<v:ud v:nameU="visLegendShape" v:prompt="" v:val="VT0(2):26"/>
				</v:userDefs>
				<title>Cloud.26</title>
				<g id="shape27-116" v:mID="27" v:groupContext="shape" transform="translate(0,-7.68028)">
					<title>Sheet.27</title>
					<path d="M37.01 776.98 C36.77 775.28 34.93 773.95 32.67 773.95 C32.02 773.95 31.42 774.07 30.87 774.26 C29.8
								 772.58 27.6 771.36 23.46 771.46 C18.09 771.59 11.73 773.62 10.45 777.22 C8.92 777.47 7.93 778.16
								 7.34 779.09 C7.1 779.07 6.86 779.06 6.61 779.06 C3.07 779.06 0.36 781.23 0.2 783.89 C0 787.35 3.07
								 788.73 6.61 788.73 C7.12 788.73 7.61 788.68 8.08 788.6 C8.82 789 9.77 789.25 10.83 789.25 C11.8
								 789.25 12.69 789.04 13.4 788.68 C14.76 790.63 17.57 792 20.79 791.84 C24.19 791.67 26.23 791.07
								 27.44 790.13 C27.51 790.12 27.58 790.12 27.66 790.11 C31.46 789.7 33.13 788.88 33.67 787.52 C33.77
								 787.52 33.87 787.52 33.97 787.52 C38.9 787.52 42.89 786.31 42.89 782.08 C42.89 779.73 40.43 777.74
								 37.01 776.98 Z" class="st1"/>
				</g>
			</g>
			<g id="shape17-118" v:mID="17" v:groupContext="shape" transform="translate(0,-3.375)">
				<title>Sheet.17</title>
				<desc>AWS S3</desc>
				<v:textBlock v:margins="rect(4,4,4,4)"/>
				<v:textRect cx="25.875" cy="778.5" width="51.75" height="27"/>
				<rect x="0" y="765" width="51.75" height="27" class="st12"/>
				<text x="13.39" y="780.9" class="st2" v:langID="1033"><v:paragraph v:horizAlign="1"/><v:tabList/>AWS S3</text>			</g>
		</g>
		<g id="shape57-121" v:mID="57" v:groupContext="shape" v:layerMember="1" transform="translate(252,-605.25)">
			<title>Dynamic connector.57</title>
			<path d="M0 783 L30.93 783" class="st10"/>
		</g>
		<g id="shape59-126" v:mID="59" v:groupContext="shape" v:layerMember="1" transform="translate(135.375,-541.125)">
			<title>Dynamic connector.59</title>
			<desc>Control</desc>
			<v:textBlock v:margins="rect(4,4,4,4)"/>
			<v:textRect cx="31.3125" cy="783" width="40" height="17.6036"/>
			<path d="M0 783 L57.55 783" class="st10"/>
			<rect v:rectContext="textBkgnd" x="19.207" y="778.2" width="24.2108" height="9.59985" class="st11"/>
			<text x="19.21" y="785.4" class="st2" v:langID="1033"><v:paragraph v:horizAlign="1"/><v:tabList/>Control</text>		</g>
		<g id="shape60-133" v:mID="60" v:groupContext="shape" v:layerMember="1" transform="translate(198,-533.25)">
			<title>Dynamic connector.60</title>
			<desc>Stats</desc>
			<v:textBlock v:margins="rect(4,4,4,4)"/>
			<v:textRect cx="-31.5" cy="783" width="40" height="17.6036"/>
			<path d="M0 783 L-57.93 783" class="st10"/>
			<rect v:rectContext="textBkgnd" x="-39.498" y="778.2" width="15.9958" height="9.59985" class="st11"/>
			<text x="-39.5" y="785.4" class="st2" v:langID="1033"><v:paragraph v:horizAlign="1"/><v:tabList/>Stats</text>		</g>
		<g id="shape68-140" v:mID="68" v:groupContext="shape" transform="translate(189,-517.5)">
			<title>Sheet.68</title>
			<rect x="0" y="661.5" width="162" height="130.5" class="st13"/>
		</g>
		<g id="shape58-142" v:mID="58" v:groupContext="shape" v:layerMember="1" transform="translate(108,-569.25)">
			<title>Dynamic connector.58</title>
			<desc>Metrics, Control</desc>
			<v:textBlock v:margins="rect(4,4,4,4)"/>
			<v:textRect cx="58.5" cy="801" width="62.47" height="17.6036"/>
			<path d="M0 794.25 L0 801 L117 801 L117 802.68" class="st10"/>
			<rect v:rectContext="textBkgnd" x="32.1741" y="796.2" width="52.652" height="9.59985" class="st11"/>
			<text x="32.17" y="803.4" class="st2" v:langID="1033"><v:paragraph v:horizAlign="1"/><v:tabList/>Metrics, Control</text>		</g>
		<g id="shape65-149" v:mID="65" v:groupContext="shape" v:layerMember="1" transform="translate(135,-525.375)">
			<title>Dynamic connector.65</title>
			<desc>Config. updates</desc>
			<v:textBlock v:margins="rect(4,4,4,4)"/>
			<v:textRect cx="31.5" cy="783" width="60.61" height="17.6036"/>
			<path d="M0 783 L57.93 783" class="st10"/>
			<rect v:rectContext="textBkgnd" x="6.10575" y="778.2" width="50.7887" height="9.59985" class="st11"/>
			<text x="6.11" y="785.4" class="st2" v:langID="1033"><v:paragraph v:horizAlign="1"/><v:tabList/>Config. updates</text>		</g>
		<g id="shape70-156" v:mID="70" v:groupContext="shape" transform="translate(225,-589.5)">
			<title>Sheet.70</title>
			<path d="M0 792 L0 785.25 L92.25 785.25 L92.25 783.57" class="st10"/>
		</g>
		<g id="shape71-161" v:mID="71" v:groupContext="shape" transform="translate(252,-585)">
			<title>Sheet.71</title>
			<path d="M0 769.5 L18 769.5 L18 792 L30.93 792" class="st14"/>
		</g>
		<g id="shape72-166" v:mID="72" v:groupContext="shape" transform="translate(252,-576)">
			<title>Sheet.72</title>
			<desc>md</desc>
			<v:textBlock v:margins="rect(4,4,4,4)"/>
			<v:textRect cx="18" cy="792" width="36" height="0"/>
			<path d="M0 792 L30.93 792" class="st14"/>
			<rect v:rectContext="textBkgnd" x="12.7032" y="787.2" width="10.5936" height="9.59985" class="st15"/>
			<text x="12.7" y="794.4" class="st2" v:langID="1033"><v:paragraph v:horizAlign="1"/><v:tabList/>md</text>		</g>
		<g id="shape73-173" v:mID="73" v:groupContext="shape" transform="translate(252,-601.875)">
			<title>Sheet.73</title>
			<desc>md</desc>
			<v:textBlock v:margins="rect(0,0,0,0)"/>
			<v:textRect cx="9.3125" cy="786.375" width="18.63" height="11.25"/>
			<rect x="0" y="780.75" width="18.625" height="11.25" class="st4"/>
			<rect v:rectContext="textBkgnd" x="4.01578" y="781.575" width="10.5936" height="9.59985" class="st15"/>
			<text x="4.02" y="788.77" class="st2" v:langID="1033"><v:paragraph v:horizAlign="1"/><v:tabList/>md</text>		</g>
		<g id="shape74-177" v:mID="74" v:groupContext="shape" transform="translate(-474.469,315.75) rotate(-90)">
			<title>Sheet.74</title>
			<desc>md</desc>
			<v:textBlock v:margins="rect(4,4,4,4)"/>
			<v:textRect cx="45.375" cy="792" width="90.76" height="0"/>
			<path d="M0 792 L85.68 792" class="st14"/>
			<rect v:rectContext="textBkgnd" x="40.0784" y="787.2" width="10.5936" height="9.59985" class="st11"/>
			<text x="40.08" y="794.4" class="st2" v:langID="1033"><v:paragraph v:horizAlign="1"/><v:tabList/>md</text>		</g>
		<g id="shape25-184" v:mID="25" v:groupContext="shape" transform="translate(1242,150.75) rotate(90)">
			<title>Sheet.25</title>
			<path d="M0 792 L139.5 792" class="st16"/>
		</g>
		<g id="shape76-187" v:mID="76" v:groupContext="shape" transform="translate(868.5,150.75) rotate(90)">
			<title>Sheet.76</title>
			<path d="M0 792 L139.5 792" class="st16"/>
		</g>
		<g id="shape77-190" v:mID="77" v:groupContext="shape" transform="translate(195.75,-668.25)">
			<title>Sheet.77</title>
			<path d="M0 792 L213 792" class="st16"/>
		</g>
		<g id="shape78-193" v:mID="78" v:groupContext="shape" transform="translate(195.75,-425.25)">
			<title>Sheet.78</title>
			<path d="M0 792 L171.75 792" class="st16"/>
		</g>
	</g>
</svg>
