<?xml version="1.0" encoding="UTF-8" standalone="no"?>
<svg
   xmlns:v="http://schemas.microsoft.com/visio/2003/SVGExtensions/"
   xmlns:dc="http://purl.org/dc/elements/1.1/"
   xmlns:cc="http://creativecommons.org/ns#"
   xmlns:rdf="http://www.w3.org/1999/02/22-rdf-syntax-ns#"
   xmlns:svg="http://www.w3.org/2000/svg"
   xmlns="http://www.w3.org/2000/svg"
   xmlns:xlink="http://www.w3.org/1999/xlink"
   width="6.3937511in"
   height="6.4020844in"
   viewBox="0 0 460.35008 460.95007"
   xml:space="preserve"
   class="st11"
   version="1.1"
   id="svg241"
   style="font-size:12px;overflow:visible;color-interpolation-filters:sRGB;fill:none;fill-rule:evenodd;stroke-linecap:square;stroke-miterlimit:3"><metadata
     id="metadata245"><rdf:RDF><cc:Work
         rdf:about=""><dc:format>image/svg+xml</dc:format><dc:type
           rdf:resource="http://purl.org/dc/dcmitype/StillImage" /><dc:title></dc:title></cc:Work></rdf:RDF></metadata><v:documentProperties
     v:langID="1033"
     v:viewMarkup="false"><v:userDefs><v:ud
         v:nameU="msvNoAutoConnect"
         v:val="VT0(1):26" /></v:userDefs></v:documentProperties><style
     type="text/css"
     id="style2"><![CDATA[
		.st1 {marker-end:url(#mrkr13-6);stroke:#000000;stroke-linecap:round;stroke-linejoin:round;stroke-width:0.25}
		.st2 {fill:#000000;fill-opacity:1;stroke:#000000;stroke-opacity:1;stroke-width:0.090252707581227}
		.st3 {fill:#ffffff;stroke:#000000;stroke-linecap:round;stroke-linejoin:round;stroke-width:0.24}
		.st4 {fill:#000000;font-family:Calibri;font-size:0.833336em}
		.st5 {font-size:1em}
		.st6 {fill:#ffffff;stroke:none;stroke-linecap:butt;stroke-width:7.2}
		.st7 {fill:#000000;font-family:Calibri;font-size:0.666664em}
		.st8 {fill:#ffffff;stroke:none;stroke-linecap:butt}
		.st9 {fill:#ffffff;stroke:none;stroke-linecap:round;stroke-linejoin:round;stroke-width:0.75}
		.st10 {stroke:#ffffff;stroke-linecap:round;stroke-linejoin:round;stroke-width:0.75}
		.st11 {fill:none;fill-rule:evenodd;font-size:12px;overflow:visible;stroke-linecap:square;stroke-miterlimit:3}
	]]></style><defs
     id="Markers"><g
       id="lend13"><path
         d="M 3,1 0,0 3,-1 v 2"
         style="stroke:none"
         id="path4" /></g><marker
       id="mrkr13-6"
       class="st2"
       v:arrowType="13"
       v:arrowSize="2"
       v:setback="33.24"
       refX="-33.240002"
       orient="auto"
       markerUnits="strokeWidth"
       overflow="visible"
       style="overflow:visible;fill:#000000;fill-opacity:1;stroke:#000000;stroke-width:0.0902527;stroke-opacity:1"><use
         xlink:href="#lend13"
         transform="scale(-11.08)"
         id="use7"
         x="0"
         y="0"
         width="100%"
         height="100%" /></marker></defs><g
     v:mID="0"
     v:index="1"
     v:groupContext="foregroundPage"
     id="g239"
     transform="translate(-50.024962,-62.624962)"><title
       id="title11">Page-1</title><v:pageProperties
       v:drawingScale="1"
       v:pageScale="1"
       v:drawingUnits="19"
       v:shadowOffsetX="9"
       v:shadowOffsetY="-9" /><v:layer
       v:name="Connector"
       v:index="0" /><g
       id="shape13-1"
       v:mID="13"
       v:groupContext="shape"
       v:layerMember="0"
       transform="translate(261,-589.5)"><title
         id="title13">Dynamic connector.13</title><path
         d="m -9,792 v 21.39"
         class="st1"
         id="path15"
         style="stroke:#000000;stroke-width:0.25;stroke-linecap:round;stroke-linejoin:round;marker-end:url(#mrkr13-6)" /></g><g
       id="shape1-7"
       v:mID="1"
       v:groupContext="shape"
       transform="translate(207,-514.8)"><title
         id="title18">Rectangle</title><desc
         id="desc20">Queue Populator</desc><v:userDefs><v:ud
           v:nameU="visVersion"
           v:val="VT0(15):26" /></v:userDefs><v:textBlock
         v:margins="rect(4,4,4,4)" /><v:textRect
         cx="45"
         cy="769.5"
         width="90"
         height="45" /><rect
         x="0"
         y="747"
         width="90"
         height="45"
         class="st3"
         id="rect22"
         style="fill:#ffffff;stroke:#000000;stroke-width:0.23999999;stroke-linecap:round;stroke-linejoin:round" /><text
         x="10.2"
         y="772.5"
         class="st4"
         v:langID="1033"
         id="text24"
         style="font-size:10.00003242px;font-family:Calibri;fill:#000000"><v:paragraph
   v:horizAlign="1" /><v:tabList />Queue Populator</text>
</g><g
       id="shape2-10"
       v:mID="2"
       v:groupContext="shape"
       transform="translate(72,-589.5)"><title
         id="title27">Rectangle.2</title><desc
         id="desc29">S3 Connector</desc><v:userDefs><v:ud
           v:nameU="visVersion"
           v:val="VT0(15):26" /></v:userDefs><v:textBlock
         v:margins="rect(4,4,4,4)" /><v:textRect
         cx="45"
         cy="769.5"
         width="90"
         height="45" /><rect
         x="0"
         y="747"
         width="90"
         height="45"
         class="st3"
         id="rect31"
         style="fill:#ffffff;stroke:#000000;stroke-width:0.23999999;stroke-linecap:round;stroke-linejoin:round" /><text
         x="17.82"
         y="772.5"
         class="st4"
         v:langID="1033"
         id="text33"
         style="font-size:10.00003242px;font-family:Calibri;fill:#000000"><v:paragraph
   v:horizAlign="1" /><v:tabList />S3 Connector</text>
</g><g
       id="shape3-13"
       v:mID="3"
       v:groupContext="shape"
       transform="translate(207,-589.5)"><title
         id="title36">Rectangle.3</title><desc
         id="desc38">Metadata log</desc><v:userDefs><v:ud
           v:nameU="visVersion"
           v:val="VT0(15):26" /></v:userDefs><v:textBlock
         v:margins="rect(4,4,4,4)" /><v:textRect
         cx="45"
         cy="769.5"
         width="90"
         height="45" /><rect
         x="0"
         y="747"
         width="90"
         height="45"
         class="st3"
         id="rect40"
         style="fill:#ffffff;stroke:#000000;stroke-width:0.23999999;stroke-linecap:round;stroke-linejoin:round" /><text
         x="25.08"
         y="766.5"
         class="st4"
         v:langID="1033"
         id="text44"
         style="font-size:10.00003242px;font-family:Calibri;fill:#000000"><v:paragraph
   v:horizAlign="1" /><v:tabList />Metadata<v:newlineChar /><tspan
   x="38.860001"
   dy="1.2em"
   class="st5"
   id="tspan42"
   style="font-size:10.00003242px">log</tspan></text>
</g><g
       id="shape4-17"
       v:mID="4"
       v:groupContext="shape"
       transform="translate(396,-514.8)"><title
         id="title47">Rectangle.4</title><desc
         id="desc49">ZooKeeper</desc><v:userDefs><v:ud
           v:nameU="visVersion"
           v:val="VT0(15):26" /></v:userDefs><v:textBlock
         v:margins="rect(4,4,4,4)" /><v:textRect
         cx="45"
         cy="769.5"
         width="90"
         height="45" /><rect
         x="0"
         y="747"
         width="90"
         height="45"
         class="st3"
         id="rect51"
         style="fill:#ffffff;stroke:#000000;stroke-width:0.23999999;stroke-linecap:round;stroke-linejoin:round" /><text
         x="22.950001"
         y="772.5"
         class="st4"
         v:langID="1033"
         id="text53"
         style="font-size:10.00003242px;font-family:Calibri;fill:#000000"><v:paragraph
   v:horizAlign="1" /><v:tabList />ZooKeeper</text>
</g><g
       id="shape5-20"
       v:mID="5"
       v:groupContext="shape"
       transform="translate(396,-441)"><title
         id="title56">Rectangle.5</title><desc
         id="desc58">Conductor</desc><v:userDefs><v:ud
           v:nameU="visVersion"
           v:val="VT0(15):26" /></v:userDefs><v:textBlock
         v:margins="rect(4,4,4,4)" /><v:textRect
         cx="45"
         cy="769.5"
         width="90"
         height="45" /><rect
         x="0"
         y="747"
         width="90"
         height="45"
         class="st3"
         id="rect60"
         style="fill:#ffffff;stroke:#000000;stroke-width:0.23999999;stroke-linecap:round;stroke-linejoin:round" /><text
         x="23.65"
         y="772.5"
         class="st4"
         v:langID="1033"
         id="text62"
         style="font-size:10.00003242px;font-family:Calibri;fill:#000000"><v:paragraph
   v:horizAlign="1" /><v:tabList />Conductor</text>
</g><g
       id="shape6-23"
       v:mID="6"
       v:groupContext="shape"
       transform="translate(207,-373.5)"><title
         id="title65">Rectangle.6</title><desc
         id="desc67">Producer</desc><v:userDefs><v:ud
           v:nameU="visVersion"
           v:val="VT0(15):26" /></v:userDefs><v:textBlock
         v:margins="rect(4,4,4,4)" /><v:textRect
         cx="45"
         cy="769.5"
         width="90"
         height="45" /><rect
         x="0"
         y="747"
         width="90"
         height="45"
         class="st3"
         id="rect69"
         style="fill:#ffffff;stroke:#000000;stroke-width:0.23999999;stroke-linecap:round;stroke-linejoin:round" /><text
         x="26.440001"
         y="772.5"
         class="st4"
         v:langID="1033"
         id="text71"
         style="font-size:10.00003242px;font-family:Calibri;fill:#000000"><v:paragraph
   v:horizAlign="1" /><v:tabList />Producer</text>
</g><g
       id="shape7-26"
       v:mID="7"
       v:groupContext="shape"
       transform="translate(396,-373.5)"><title
         id="title74">Rectangle.7</title><desc
         id="desc76">Kafka</desc><v:userDefs><v:ud
           v:nameU="visVersion"
           v:val="VT0(15):26" /></v:userDefs><v:textBlock
         v:margins="rect(4,4,4,4)" /><v:textRect
         cx="45"
         cy="769.5"
         width="90"
         height="45" /><rect
         x="0"
         y="747"
         width="90"
         height="45"
         class="st3"
         id="rect78"
         style="fill:#ffffff;stroke:#000000;stroke-width:0.23999999;stroke-linecap:round;stroke-linejoin:round" /><text
         x="33.810001"
         y="772.5"
         class="st4"
         v:langID="1033"
         id="text80"
         style="font-size:10.00003242px;font-family:Calibri;fill:#000000"><v:paragraph
   v:horizAlign="1" /><v:tabList />Kafka</text>
</g><g
       id="shape8-29"
       v:mID="8"
       v:groupContext="shape"
       transform="translate(207,-274.5)"><title
         id="title83">Rectangle.8</title><desc
         id="desc85">Consumer</desc><v:userDefs><v:ud
           v:nameU="visVersion"
           v:val="VT0(15):26" /></v:userDefs><v:textBlock
         v:margins="rect(4,4,4,4)" /><v:textRect
         cx="45"
         cy="769.5"
         width="90"
         height="45" /><rect
         x="0"
         y="747"
         width="90"
         height="45"
         class="st3"
         id="rect87"
         style="fill:#ffffff;stroke:#000000;stroke-width:0.23999999;stroke-linecap:round;stroke-linejoin:round" /><text
         x="24.26"
         y="772.5"
         class="st4"
         v:langID="1033"
         id="text89"
         style="font-size:10.00003242px;font-family:Calibri;fill:#000000"><v:paragraph
   v:horizAlign="1" /><v:tabList />Consumer</text>
</g><g
       id="shape9-32"
       v:mID="9"
       v:groupContext="shape"
       v:layerMember="0"
       transform="translate(207,-297)"><title
         id="title92">Dynamic connector</title><desc
         id="desc94">DELETE foobucket/obj@v1</desc><v:textBlock
         v:margins="rect(4,4,4,4)" /><v:textRect
         cx="-108"
         cy="699.75"
         width="96.74"
         height="17.6036" /><path
         d="M 0,792 H -108 V 507.81"
         class="st1"
         id="path96"
         style="stroke:#000000;stroke-width:0.25;stroke-linecap:round;stroke-linejoin:round;marker-end:url(#mrkr13-6)" /><rect
         v:rectContext="textBkgnd"
         x="-151.461"
         y="694.95001"
         width="86.9216"
         height="9.5998497"
         class="st6"
         id="rect98"
         style="fill:#ffffff;stroke:none;stroke-width:7.19999981;stroke-linecap:butt" /><text
         x="-151.46001"
         y="702.15002"
         class="st7"
         v:langID="1033"
         id="text100"
         style="font-size:7.99996805px;font-family:Calibri;fill:#000000"><v:paragraph
   v:horizAlign="1" /><v:tabList />DELETE foobucket/obj@v1</text>
</g><g
       id="shape10-39"
       v:mID="10"
       v:groupContext="shape"
       v:layerMember="0"
       transform="translate(207,-396)"><title
         id="title103">Dynamic connector.10</title><path
         d="M 0,792 H -72 V 606.81"
         class="st1"
         id="path105"
         style="stroke:#000000;stroke-width:0.25;stroke-linecap:round;stroke-linejoin:round;marker-end:url(#mrkr13-6)" /></g><g
       id="shape11-44"
       v:mID="11"
       v:groupContext="shape"
       transform="translate(72,-675)"><title
         id="title108">Rectangle.11</title><desc
         id="desc110">S3 Client</desc><v:userDefs><v:ud
           v:nameU="visVersion"
           v:val="VT0(15):26" /></v:userDefs><v:textBlock
         v:margins="rect(4,4,4,4)" /><v:textRect
         cx="45"
         cy="769.5"
         width="90"
         height="45" /><rect
         x="0"
         y="747"
         width="90"
         height="45"
         class="st3"
         id="rect112"
         style="fill:#ffffff;stroke:#000000;stroke-width:0.23999999;stroke-linecap:round;stroke-linejoin:round" /><text
         x="27.290001"
         y="772.5"
         class="st4"
         v:langID="1033"
         id="text114"
         style="font-size:10.00003242px;font-family:Calibri;fill:#000000"><v:paragraph
   v:horizAlign="1" /><v:tabList />S3 Client</text>
</g><g
       id="shape12-47"
       v:mID="12"
       v:groupContext="shape"
       v:layerMember="0"
       transform="translate(108,-675)"><title
         id="title117">Dynamic connector.12</title><desc
         id="desc119">PUT /foobucket?lifecycle</desc><v:textBlock
         v:margins="rect(4,4,4,4)" /><v:textRect
         cx="9"
         cy="812.25"
         width="90.85"
         height="17.6036" /><path
         d="m 9,792 v 32.19"
         class="st1"
         id="path121"
         style="stroke:#000000;stroke-width:0.25;stroke-linecap:round;stroke-linejoin:round;marker-end:url(#mrkr13-6)" /><rect
         v:rectContext="textBkgnd"
         x="-31.514999"
         y="807.45001"
         width="81.030197"
         height="9.5998497"
         class="st8"
         id="rect123"
         style="fill:#ffffff;stroke:none;stroke-linecap:butt" /><text
         x="-31.51"
         y="814.65002"
         class="st7"
         v:langID="1033"
         id="text125"
         style="font-size:7.99996805px;font-family:Calibri;fill:#000000"><v:paragraph
   v:horizAlign="1" /><v:tabList />PUT /foobucket?lifecycle</text>
</g><g
       id="shape17-54"
       v:mID="17"
       v:groupContext="shape"
       v:layerMember="0"
       transform="translate(162,-603)"><title
         id="title128">Dynamic connector.17</title><path
         d="M 0,783 H 36.69"
         class="st1"
         id="path130"
         style="stroke:#000000;stroke-width:0.25;stroke-linecap:round;stroke-linejoin:round;marker-end:url(#mrkr13-6)" /></g><g
       id="shape18-59"
       v:mID="18"
       v:groupContext="shape"
       v:layerMember="0"
       transform="translate(297,-528.3)"><title
         id="title133">Dynamic connector.18</title><desc
         id="desc135">foobucket</desc><v:textBlock
         v:margins="rect(4,4,4,4)" /><v:textRect
         cx="49.5"
         cy="783"
         width="42.78"
         height="17.6036" /><path
         d="M 0,783 H 90.69"
         class="st1"
         id="path137"
         style="stroke:#000000;stroke-width:0.25;stroke-linecap:round;stroke-linejoin:round;marker-end:url(#mrkr13-6)" /><rect
         v:rectContext="textBkgnd"
         x="33.017899"
         y="778.20001"
         width="32.9645"
         height="9.5998497"
         class="st6"
         id="rect139"
         style="fill:#ffffff;stroke:none;stroke-width:7.19999981;stroke-linecap:butt" /><text
         x="33.02"
         y="785.40002"
         class="st7"
         v:langID="1033"
         id="text141"
         style="font-size:7.99996805px;font-family:Calibri;fill:#000000"><v:paragraph
   v:horizAlign="1" /><v:tabList />foobucket</text>
</g><g
       id="shape19-66"
       v:mID="19"
       v:groupContext="shape"
       v:layerMember="0"
       transform="translate(432,-514.8)"><title
         id="title144">Dynamic connector.19</title><desc
         id="desc146">foobucket</desc><v:textBlock
         v:margins="rect(4,4,4,4)" /><v:textRect
         cx="9"
         cy="806.4"
         width="42.78"
         height="17.6036" /><path
         d="m 9,792 v 20.49"
         class="st1"
         id="path148"
         style="stroke:#000000;stroke-width:0.25;stroke-linecap:round;stroke-linejoin:round;marker-end:url(#mrkr13-6)" /><rect
         v:rectContext="textBkgnd"
         x="-7.4821301"
         y="801.59998"
         width="32.9645"
         height="9.5998497"
         class="st8"
         id="rect150"
         style="fill:#ffffff;stroke:none;stroke-linecap:butt" /><text
         x="-7.48"
         y="808.79999"
         class="st7"
         v:langID="1033"
         id="text152"
         style="font-size:7.99996805px;font-family:Calibri;fill:#000000"><v:paragraph
   v:horizAlign="1" /><v:tabList />foobucket</text>
</g><g
       id="shape20-73"
       v:mID="20"
       v:groupContext="shape"
       v:layerMember="0"
       transform="translate(432,-441)"><title
         id="title155">Dynamic connector.20</title><desc
         id="desc157">foobucket@null</desc><v:textBlock
         v:margins="rect(4,4,4,4)" /><v:textRect
         cx="9"
         cy="803.25"
         width="62.01"
         height="17.6036" /><path
         d="m 9,792 v 14.19"
         class="st1"
         id="path159"
         style="stroke:#000000;stroke-width:0.25;stroke-linecap:round;stroke-linejoin:round;marker-end:url(#mrkr13-6)" /><rect
         v:rectContext="textBkgnd"
         x="-17.0972"
         y="798.45001"
         width="52.194698"
         height="9.5998497"
         class="st6"
         id="rect161"
         style="fill:#ffffff;stroke:none;stroke-width:7.19999981;stroke-linecap:butt" /><text
         x="-17.1"
         y="805.65002"
         class="st7"
         v:langID="1033"
         id="text163"
         style="font-size:7.99996805px;font-family:Calibri;fill:#000000"><v:paragraph
   v:horizAlign="1" /><v:tabList />foobucket@null</text>
</g><g
       id="shape21-80"
       v:mID="21"
       v:groupContext="shape"
       v:layerMember="0"
       transform="translate(396,-387)"><title
         id="title166">Dynamic connector.21</title><desc
         id="desc168">foobucket@marker</desc><v:textBlock
         v:margins="rect(4,4,4,4)" /><v:textRect
         cx="-49.5"
         cy="783"
         width="73.35"
         height="17.6036" /><path
         d="M 0,783 H -90.69"
         class="st1"
         id="path170"
         style="stroke:#000000;stroke-width:0.25;stroke-linecap:round;stroke-linejoin:round;marker-end:url(#mrkr13-6)" /><rect
         v:rectContext="textBkgnd"
         x="-81.267303"
         y="778.20001"
         width="63.534801"
         height="9.5998497"
         class="st6"
         id="rect172"
         style="fill:#ffffff;stroke:none;stroke-width:7.19999981;stroke-linecap:butt" /><text
         x="-81.269997"
         y="785.40002"
         class="st7"
         v:langID="1033"
         id="text174"
         style="font-size:7.99996805px;font-family:Calibri;fill:#000000"><v:paragraph
   v:horizAlign="1" /><v:tabList />foobucket@marker</text>
</g><g
       id="shape22-87"
       v:mID="22"
       v:groupContext="shape"
       v:layerMember="0"
       transform="translate(270,-382.5)"><title
         id="title177">Dynamic connector.22</title><desc
         id="desc179">expire foobucket/obj@v1</desc><v:textBlock
         v:margins="rect(4,4,4,4)" /><v:textRect
         cx="81"
         cy="814.5"
         width="93.09"
         height="17.6036" /><path
         d="m 0,801 v 13.5 h 162 v -5.19"
         class="st1"
         id="path181"
         style="stroke:#000000;stroke-width:0.25;stroke-linecap:round;stroke-linejoin:round;marker-end:url(#mrkr13-6)" /><rect
         v:rectContext="textBkgnd"
         x="39.363602"
         y="809.70001"
         width="83.273102"
         height="9.5998497"
         class="st8"
         id="rect183"
         style="fill:#ffffff;stroke:none;stroke-linecap:butt" /><text
         x="39.360001"
         y="816.90002"
         class="st7"
         v:langID="1033"
         id="text185"
         style="font-size:7.99996805px;font-family:Calibri;fill:#000000"><v:paragraph
   v:horizAlign="1" /><v:tabList />expire foobucket/obj@v1</text>
</g><g
       id="shape23-94"
       v:mID="23"
       v:groupContext="shape"
       v:layerMember="0"
       transform="translate(234,-382.5)"><title
         id="title188">Dynamic connector.23</title><desc
         id="desc190">foobucker@(marker+n)</desc><v:textBlock
         v:margins="rect(4,4,4,4)" /><v:textRect
         cx="109.125"
         cy="830.7"
         width="86.5"
         height="17.6036" /><path
         d="m 0,801 v 29.7 h 218.25 v -21.39"
         class="st1"
         id="path192"
         style="stroke:#000000;stroke-width:0.25;stroke-linecap:round;stroke-linejoin:round;marker-end:url(#mrkr13-6)" /><rect
         v:rectContext="textBkgnd"
         x="70.783401"
         y="825.90002"
         width="76.683502"
         height="9.5998497"
         class="st6"
         id="rect194"
         style="fill:#ffffff;stroke:none;stroke-width:7.19999981;stroke-linecap:butt" /><text
         x="70.779999"
         y="833.09998"
         class="st7"
         v:langID="1033"
         id="text196"
         style="font-size:7.99996805px;font-family:Calibri;fill:#000000"><v:paragraph
   v:horizAlign="1" /><v:tabList />foobucker@(marker+n)</text>
</g><g
       id="shape24-101"
       v:mID="24"
       v:groupContext="shape"
       v:layerMember="0"
       transform="translate(486,-396)"><title
         id="title199">Dynamic connector.24</title><desc
         id="desc201">Expire foobucket/obj@v1</desc><v:textBlock
         v:margins="rect(4,4,4,4)" /><v:textRect
         cx="-27"
         cy="891"
         width="93.02"
         height="17.6036" /><path
         d="m 0,792 h 18 v 99 h -198.69"
         class="st1"
         id="path203"
         style="stroke:#000000;stroke-width:0.25;stroke-linecap:round;stroke-linejoin:round;marker-end:url(#mrkr13-6)" /><rect
         v:rectContext="textBkgnd"
         x="-68.599297"
         y="886.20001"
         width="83.198898"
         height="9.5998497"
         class="st6"
         id="rect205"
         style="fill:#ffffff;stroke:none;stroke-width:7.19999981;stroke-linecap:butt" /><text
         x="-68.599998"
         y="893.40002"
         class="st7"
         v:langID="1033"
         id="text207"
         style="font-size:7.99996805px;font-family:Calibri;fill:#000000"><v:paragraph
   v:horizAlign="1" /><v:tabList />Expire foobucket/obj@v1</text>
</g><g
       id="shape36-108"
       v:mID="36"
       v:groupContext="shape"
       transform="translate(187,-572.625)"><title
         id="title210">Sheet.36</title><desc
         id="desc212">Entry:&quot;PUT /foobucket?lifecycle&quot;</desc><v:textBlock
         v:margins="rect(4,4,4,4)" /><v:textRect
         cx="65"
         cy="788.063"
         width="130"
         height="7.875" /><rect
         x="0"
         y="784.125"
         width="130"
         height="7.875"
         class="st9"
         id="rect214"
         style="fill:#ffffff;stroke:none;stroke-width:0.75;stroke-linecap:round;stroke-linejoin:round" /><text
         x="11.61"
         y="790.46002"
         class="st7"
         v:langID="1033"
         id="text216"
         style="font-size:7.99996805px;font-family:Calibri;fill:#000000"><v:paragraph
   v:horizAlign="1" /><v:tabList />Entry:&quot;PUT /foobucket?lifecycle&quot;</text>
</g><g
       id="shape41-111"
       v:mID="41"
       v:groupContext="shape"
       transform="translate(101.812,-729)"><title
         id="title219">Sheet.41</title><path
         d="M 0,792 H 60.19"
         class="st10"
         id="path221"
         style="stroke:#ffffff;stroke-width:0.75;stroke-linecap:round;stroke-linejoin:round" /></g><g
       id="shape42-114"
       v:mID="42"
       v:groupContext="shape"
       transform="translate(230.4,-268.8)"><title
         id="title224">Sheet.42</title><path
         d="M 0,792 H 60.19"
         class="st10"
         id="path226"
         style="stroke:#ffffff;stroke-width:0.75;stroke-linecap:round;stroke-linejoin:round" /></g><g
       id="shape43-117"
       v:mID="43"
       v:groupContext="shape"
       transform="rotate(90,238.95,603.45)"><title
         id="title229">Sheet.43</title><path
         d="M 0,792 H 67.5"
         class="st10"
         id="path231"
         style="stroke:#ffffff;stroke-width:0.75;stroke-linecap:round;stroke-linejoin:round" /></g><g
       id="shape44-120"
       v:mID="44"
       v:groupContext="shape"
       transform="rotate(90,468.75,833.25)"><title
         id="title234">Sheet.44</title><path
         d="M 0,792 H 67.5"
         class="st10"
         id="path236"
         style="stroke:#ffffff;stroke-width:0.75;stroke-linecap:round;stroke-linejoin:round" /></g></g></svg>